{
    "albums": {
        "href": "https://api.spotify.com/v1/browse/new-releases?offset=0&limit=30",
        "items": [
            {
                "album_type": "single",
                "artists": [
                    {
                        "external_urls": {
                            "spotify": "https://open.spotify.com/artist/1vyhD5VmyZ7KMfW5gqLgo5"
                        },
                        "href": "https://api.spotify.com/v1/artists/1vyhD5VmyZ7KMfW5gqLgo5",
                        "id": "1vyhD5VmyZ7KMfW5gqLgo5",
                        "name": "J Balvin",
                        "type": "artist",
                        "uri": "spotify:artist:1vyhD5VmyZ7KMfW5gqLgo5"
                    }
                ],
                "available_markets": [
                    "AD",
                    "AR",
                    "AT",
                    "AU",
                    "BE",
                    "BG",
                    "BO",
                    "BR",
                    "CA",
                    "CH",
                    "CL",
                    "CO",
                    "CR",
                    "CY",
                    "CZ",
                    "DE",
                    "DK",
                    "DO",
                    "EC",
                    "EE",
                    "ES",
                    "FI",
                    "FR",
                    "GB",
                    "GR",
                    "GT",
                    "HK",
                    "HN",
                    "HU",
                    "ID",
                    "IE",
                    "IL",
                    "IS",
                    "IT",
                    "JP",
                    "LI",
                    "LT",
                    "LU",
                    "LV",
                    "MC",
                    "MT",
                    "MX",
                    "MY",
                    "NI",
                    "NL",
                    "NO",
                    "NZ",
                    "PA",
                    "PE",
                    "PH",
                    "PL",
                    "PT",
                    "PY",
                    "RO",
                    "SE",
                    "SG",
                    "SK",
                    "SV",
                    "TH",
                    "TR",
                    "TW",
                    "US",
                    "UY",
                    "VN",
                    "ZA"
                ],
                "external_urls": {
                    "spotify": "https://open.spotify.com/album/5VaV3lEx8caU5c4cK2Z17g"
                },
                "href": "https://api.spotify.com/v1/albums/5VaV3lEx8caU5c4cK2Z17g",
                "id": "5VaV3lEx8caU5c4cK2Z17g",
                "images": [
                    {
                        "height": 640,
                        "url": "https://i.scdn.co/image/dad5ae465c96c49a048d142b098fad20b8682d3d",
                        "width": 640
                    },
                    {
                        "height": 300,
                        "url": "https://i.scdn.co/image/970aae6c6eb09000e8fbf3d571dd921329f4e661",
                        "width": 300
                    },
                    {
                        "height": 64,
                        "url": "https://i.scdn.co/image/3f1a1af38aa0cd2664e4751eb6b83ccecbddd28f",
                        "width": 64
                    }
                ],
                "name": "Dónde Estarás",
                "release_date": "2018-05-17",
                "release_date_precision": "day",
                "type": "album",
                "uri": "spotify:album:5VaV3lEx8caU5c4cK2Z17g"
            },
            {
                "album_type": "album",
                "artists": [
                    {
                        "external_urls": {
                            "spotify": "https://open.spotify.com/artist/4qBgvVog0wzW75IQ48mU7v"
                        },
                        "href": "https://api.spotify.com/v1/artists/4qBgvVog0wzW75IQ48mU7v",
                        "id": "4qBgvVog0wzW75IQ48mU7v",
                        "name": "KYLE",
                        "type": "artist",
                        "uri": "spotify:artist:4qBgvVog0wzW75IQ48mU7v"
                    }
                ],
                "available_markets": [
                    "AD",
                    "AR",
                    "AT",
                    "AU",
                    "BE",
                    "BG",
                    "BO",
                    "BR",
                    "CA",
                    "CH",
                    "CL",
                    "CO",
                    "CR",
                    "CY",
                    "CZ",
                    "DE",
                    "DK",
                    "DO",
                    "EC",
                    "EE",
                    "ES",
                    "FI",
                    "FR",
                    "GB",
                    "GR",
                    "GT",
                    "HK",
                    "HN",
                    "HU",
                    "ID",
                    "IE",
                    "IL",
                    "IS",
                    "IT",
                    "JP",
                    "LI",
                    "LT",
                    "LU",
                    "LV",
                    "MC",
                    "MT",
                    "MX",
                    "MY",
                    "NI",
                    "NL",
                    "NO",
                    "NZ",
                    "PA",
                    "PE",
                    "PH",
                    "PL",
                    "PT",
                    "PY",
                    "RO",
                    "SE",
                    "SG",
                    "SK",
                    "SV",
                    "TH",
                    "TR",
                    "TW",
                    "US",
                    "UY",
                    "VN",
                    "ZA"
                ],
                "external_urls": {
                    "spotify": "https://open.spotify.com/album/2c1ipXPsfn6ylm6PrQNuDU"
                },
                "href": "https://api.spotify.com/v1/albums/2c1ipXPsfn6ylm6PrQNuDU",
                "id": "2c1ipXPsfn6ylm6PrQNuDU",
                "images": [
                    {
                        "height": 640,
                        "url": "https://i.scdn.co/image/9c26617a0f2f2336ad752095d0cca885196283ae",
                        "width": 640
                    },
                    {
                        "height": 300,
                        "url": "https://i.scdn.co/image/74e4e22ce067ae84c233d7e957e6a8e02497623a",
                        "width": 300
                    },
                    {
                        "height": 64,
                        "url": "https://i.scdn.co/image/e97a8ff3fc7b73e0cee5500ea86071cf62e774a5",
                        "width": 64
                    }
                ],
                "name": "Light of Mine",
                "release_date": "2018-05-18",
                "release_date_precision": "day",
                "type": "album",
                "uri": "spotify:album:2c1ipXPsfn6ylm6PrQNuDU"
            },
            {
                "album_type": "single",
                "artists": [
                    {
                        "external_urls": {
                            "spotify": "https://open.spotify.com/artist/0vjlH9sbJOZyhDjhvajQpY"
                        },
                        "href": "https://api.spotify.com/v1/artists/0vjlH9sbJOZyhDjhvajQpY",
                        "id": "0vjlH9sbJOZyhDjhvajQpY",
                        "name": "Alex Da Kid",
                        "type": "artist",
                        "uri": "spotify:artist:0vjlH9sbJOZyhDjhvajQpY"
                    }
                ],
                "available_markets": [
                    "AD",
                    "AR",
                    "AT",
                    "AU",
                    "BE",
                    "BG",
                    "BO",
                    "BR",
                    "CA",
                    "CH",
                    "CL",
                    "CO",
                    "CR",
                    "CY",
                    "CZ",
                    "DE",
                    "DK",
                    "DO",
                    "EC",
                    "EE",
                    "ES",
                    "FI",
                    "FR",
                    "GB",
                    "GR",
                    "GT",
                    "HK",
                    "HN",
                    "HU",
                    "ID",
                    "IE",
                    "IL",
                    "IS",
                    "IT",
                    "JP",
                    "LI",
                    "LT",
                    "LU",
                    "LV",
                    "MC",
                    "MT",
                    "MX",
                    "MY",
                    "NI",
                    "NL",
                    "NO",
                    "NZ",
                    "PA",
                    "PE",
                    "PH",
                    "PL",
                    "PT",
                    "PY",
                    "RO",
                    "SE",
                    "SG",
                    "SK",
                    "SV",
                    "TH",
                    "TR",
                    "TW",
                    "US",
                    "UY",
                    "VN",
                    "ZA"
                ],
                "external_urls": {
                    "spotify": "https://open.spotify.com/album/3dYiqpXZlsHjhKa8uyNOm8"
                },
                "href": "https://api.spotify.com/v1/albums/3dYiqpXZlsHjhKa8uyNOm8",
                "id": "3dYiqpXZlsHjhKa8uyNOm8",
                "images": [
                    {
                        "height": 640,
                        "url": "https://i.scdn.co/image/694402879d7b9511210eab6e6679d78a6bc95b61",
                        "width": 640
                    },
                    {
                        "height": 300,
                        "url": "https://i.scdn.co/image/34a94ce25a14a3672eb1da4977f641b823f841bd",
                        "width": 300
                    },
                    {
                        "height": 64,
                        "url": "https://i.scdn.co/image/cae2141bb0fbb618b206aec6646087142b1bbf84",
                        "width": 64
                    }
                ],
                "name": "Go (feat. H.E.R. & Rapsody)",
                "release_date": "2018-05-18",
                "release_date_precision": "day",
                "type": "album",
                "uri": "spotify:album:3dYiqpXZlsHjhKa8uyNOm8"
            },
            {
                "album_type": "single",
                "artists": [
                    {
                        "external_urls": {
                            "spotify": "https://open.spotify.com/artist/04vj3iPUiVh5melWr0w3xT"
                        },
                        "href": "https://api.spotify.com/v1/artists/04vj3iPUiVh5melWr0w3xT",
                        "id": "04vj3iPUiVh5melWr0w3xT",
                        "name": "Christine and the Queens",
                        "type": "artist",
                        "uri": "spotify:artist:04vj3iPUiVh5melWr0w3xT"
                    }
                ],
                "available_markets": [
                    "AD",
                    "AR",
                    "AT",
                    "AU",
                    "BE",
                    "BG",
                    "BO",
                    "BR",
                    "CA",
                    "CH",
                    "CL",
                    "CO",
                    "CR",
                    "CY",
                    "CZ",
                    "DE",
                    "DK",
                    "DO",
                    "EC",
                    "EE",
                    "ES",
                    "FI",
                    "FR",
                    "GB",
                    "GR",
                    "GT",
                    "HK",
                    "HN",
                    "HU",
                    "ID",
                    "IE",
                    "IL",
                    "IS",
                    "IT",
                    "JP",
                    "LI",
                    "LT",
                    "LU",
                    "LV",
                    "MC",
                    "MT",
                    "MX",
                    "MY",
                    "NI",
                    "NL",
                    "NO",
                    "NZ",
                    "PA",
                    "PE",
                    "PH",
                    "PL",
                    "PT",
                    "PY",
                    "RO",
                    "SE",
                    "SG",
                    "SK",
                    "SV",
                    "TH",
                    "TR",
                    "TW",
                    "US",
                    "UY",
                    "VN",
                    "ZA"
                ],
                "external_urls": {
                    "spotify": "https://open.spotify.com/album/1eN1vVWlmKrmPOXXRLSuJS"
                },
                "href": "https://api.spotify.com/v1/albums/1eN1vVWlmKrmPOXXRLSuJS",
                "id": "1eN1vVWlmKrmPOXXRLSuJS",
                "images": [
                    {
                        "height": 640,
                        "url": "https://i.scdn.co/image/2c2d9b0c2c0cad40e704f0a7493e7a4171148eab",
                        "width": 640
                    },
                    {
                        "height": 300,
                        "url": "https://i.scdn.co/image/19c0155be73b2b0204de9fd2229ae0d61cbefeab",
                        "width": 300
                    },
                    {
                        "height": 64,
                        "url": "https://i.scdn.co/image/2e859c5e6f5693e63fd7e14d1cfed270975c6a2e",
                        "width": 64
                    }
                ],
                "name": "Girlfriend (feat. Dâm-Funk)",
                "release_date": "2018-05-17",
                "release_date_precision": "day",
                "type": "album",
                "uri": "spotify:album:1eN1vVWlmKrmPOXXRLSuJS"
            },
            {
                "album_type": "album",
                "artists": [
                    {
                        "external_urls": {
                            "spotify": "https://open.spotify.com/artist/4EzkuveR9pLvDVFNx6foYD"
                        },
                        "href": "https://api.spotify.com/v1/artists/4EzkuveR9pLvDVFNx6foYD",
                        "id": "4EzkuveR9pLvDVFNx6foYD",
                        "name": "James Bay",
                        "type": "artist",
                        "uri": "spotify:artist:4EzkuveR9pLvDVFNx6foYD"
                    }
                ],
                "available_markets": [
                    "AD",
                    "AR",
                    "AT",
                    "AU",
                    "BE",
                    "BG",
                    "BO",
                    "BR",
                    "CA",
                    "CH",
                    "CL",
                    "CO",
                    "CR",
                    "CY",
                    "CZ",
                    "DE",
                    "DK",
                    "DO",
                    "EC",
                    "EE",
                    "ES",
                    "FI",
                    "FR",
                    "GB",
                    "GR",
                    "GT",
                    "HK",
                    "HN",
                    "HU",
                    "ID",
                    "IE",
                    "IL",
                    "IS",
                    "IT",
                    "JP",
                    "LI",
                    "LT",
                    "LU",
                    "LV",
                    "MC",
                    "MT",
                    "MX",
                    "MY",
                    "NI",
                    "NL",
                    "NO",
                    "NZ",
                    "PA",
                    "PE",
                    "PH",
                    "PL",
                    "PT",
                    "PY",
                    "RO",
                    "SE",
                    "SG",
                    "SK",
                    "SV",
                    "TH",
                    "TR",
                    "TW",
                    "US",
                    "UY",
                    "VN",
                    "ZA"
                ],
                "external_urls": {
                    "spotify": "https://open.spotify.com/album/08cprzGPjtLDvKMwtQh93R"
                },
                "href": "https://api.spotify.com/v1/albums/08cprzGPjtLDvKMwtQh93R",
                "id": "08cprzGPjtLDvKMwtQh93R",
                "images": [
                    {
                        "height": 640,
                        "url": "https://i.scdn.co/image/0cdc68f8b84378562cd4098e41cb20ac74c400d2",
                        "width": 640
                    },
                    {
                        "height": 300,
                        "url": "https://i.scdn.co/image/c2599432712d9e1126aea0e0b849dc125fa09e3d",
                        "width": 300
                    },
                    {
                        "height": 64,
                        "url": "https://i.scdn.co/image/d7b10bb09d7037c6027965b4b0474b27351500ce",
                        "width": 64
                    }
                ],
                "name": "Electric Light",
                "release_date": "2018-05-18",
                "release_date_precision": "day",
                "type": "album",
                "uri": "spotify:album:08cprzGPjtLDvKMwtQh93R"
            }
        ],
        "limit": 30,
        "next": "https://api.spotify.com/v1/browse/new-releases?offset=30&limit=30",
        "offset": 0,
        "previous": null,
        "total": 500
    }
}