{
    "albums": {
        "href": "https://api.spotify.com/v1/browse/new-releases?offset=0&limit=30",
        "items": [
            {
                "album_type": "single",
                "artists": [
                    {
                        "external_urls": {
                            "spotify": "https://open.spotify.com/artist/2RdwBSPQiwcmiDo9kixcl8"
                        },
                        "href": "https://api.spotify.com/v1/artists/2RdwBSPQiwcmiDo9kixcl8",
                        "id": "2RdwBSPQiwcmiDo9kixcl8",
                        "name": "Pharrell Williams",
                        "type": "artist",
                        "uri": "spotify:artist:2RdwBSPQiwcmiDo9kixcl8"
                    },
                    {
                        "external_urls": {
                            "spotify": "https://open.spotify.com/artist/4nDoRrQiYLoBzwC5BhVJzF"
                        },
                        "href": "https://api.spotify.com/v1/artists/4nDoRrQiYLoBzwC5BhVJzF",
                        "id": "4nDoRrQiYLoBzwC5BhVJzF",
                        "name": "Camila Cabello",
                        "type": "artist",
                        "uri": "spotify:artist:4nDoRrQiYLoBzwC5BhVJzF"
                    }
                ],
                "available_markets": [
                    "AD",
                    "AR",
                    "AT",
                    "AU",
                    "BE",
                    "BG",
                    "BO",
                    "BR",
                    "CA",
                    "CH",
                    "CL",
                    "CO",
                    "CR",
                    "CY",
                    "CZ",
                    "DE",
                    "DK",
                    "DO",
                    "EC",
                    "EE",
                    "ES",
                    "FI",
                    "FR",
                    "GB",
                    "GR",
                    "GT",
                    "HK",
                    "HN",
                    "HU",
                    "ID",
                    "IE",
                    "IL",
                    "IS",
                    "IT",
                    "JP",
                    "LI",
                    "LT",
                    "LU",
                    "LV",
                    "MC",
                    "MT",
                    "MX",
                    "MY",
                    "NI",
                    "NL",
                    "NO",
                    "NZ",
                    "PA",
                    "PE",
                    "PH",
                    "PL",
                    "PT",
                    "PY",
                    "RO",
                    "SE",
                    "SG",
                    "SK",
                    "SV",
                    "TH",
                    "TR",
                    "TW",
                    "US",
                    "UY",
                    "VN",
                    "ZA"
                ],
                "external_urls": {
                    "spotify": "https://open.spotify.com/album/5VsvdqQIGswqgLqRCfST0e"
                },
                "href": "https://api.spotify.com/v1/albums/5VsvdqQIGswqgLqRCfST0e",
                "id": "5VsvdqQIGswqgLqRCfST0e",
                "images": [
                    {
                        "height": 640,
                        "url": "https://i.scdn.co/image/9fd4b9dd1e31965b5bf140d4264032543354afdd",
                        "width": 640
                    },
                    {
                        "height": 300,
                        "url": "https://i.scdn.co/image/dcb00310ae07ca5ad9308d84f222e83bb623a5a2",
                        "width": 300
                    },
                    {
                        "height": 64,
                        "url": "https://i.scdn.co/image/eac7e3b5340d52e2d694cd712c0ee2385a7fec51",
                        "width": 64
                    }
                ],
                "name": "Sangria Wine",
                "release_date": "2018-05-18",
                "release_date_precision": "day",
                "type": "album",
                "uri": "spotify:album:5VsvdqQIGswqgLqRCfST0e"
            },
            {
                "album_type": "album",
                "artists": [
                    {
                        "external_urls": {
                            "spotify": "https://open.spotify.com/artist/1r4hJ1h58CWwUQe3MxPuau"
                        },
                        "href": "https://api.spotify.com/v1/artists/1r4hJ1h58CWwUQe3MxPuau",
                        "id": "1r4hJ1h58CWwUQe3MxPuau",
                        "name": "Maluma",
                        "type": "artist",
                        "uri": "spotify:artist:1r4hJ1h58CWwUQe3MxPuau"
                    }
                ],
                "available_markets": [
                    "AD",
                    "AR",
                    "AT",
                    "AU",
                    "BE",
                    "BG",
                    "BO",
                    "BR",
                    "CA",
                    "CH",
                    "CL",
                    "CO",
                    "CR",
                    "CY",
                    "CZ",
                    "DE",
                    "DK",
                    "DO",
                    "EC",
                    "EE",
                    "ES",
                    "FI",
                    "FR",
                    "GB",
                    "GR",
                    "GT",
                    "HK",
                    "HN",
                    "HU",
                    "ID",
                    "IE",
                    "IL",
                    "IS",
                    "IT",
                    "JP",
                    "LI",
                    "LT",
                    "LU",
                    "LV",
                    "MC",
                    "MT",
                    "MX",
                    "MY",
                    "NI",
                    "NL",
                    "NO",
                    "NZ",
                    "PA",
                    "PE",
                    "PH",
                    "PL",
                    "PT",
                    "PY",
                    "RO",
                    "SE",
                    "SG",
                    "SK",
                    "SV",
                    "TH",
                    "TR",
                    "TW",
                    "US",
                    "UY",
                    "VN",
                    "ZA"
                ],
                "external_urls": {
                    "spotify": "https://open.spotify.com/album/6MoaDh76Fsg0ogW2l7HAFx"
                },
                "href": "https://api.spotify.com/v1/albums/6MoaDh76Fsg0ogW2l7HAFx",
                "id": "6MoaDh76Fsg0ogW2l7HAFx",
                "images": [
                    {
                        "height": 640,
                        "url": "https://i.scdn.co/image/b804b8cdc02f60aed2059bc77dca47fb88461227",
                        "width": 640
                    },
                    {
                        "height": 300,
                        "url": "https://i.scdn.co/image/22e8d563d3e74f58912dc3c09a742e23c0c77d9a",
                        "width": 300
                    },
                    {
                        "height": 64,
                        "url": "https://i.scdn.co/image/9026aae131f6809599f9fc19bd3d70f19aa79f63",
                        "width": 64
                    }
                ],
                "name": "F.A.M.E.",
                "release_date": "2018-05-18",
                "release_date_precision": "day",
                "type": "album",
                "uri": "spotify:album:6MoaDh76Fsg0ogW2l7HAFx"
            },
            {
                "album_type": "single",
                "artists": [
                    {
                        "external_urls": {
                            "spotify": "https://open.spotify.com/artist/2kucQ9jQwuD8jWdtR9Ef38"
                        },
                        "href": "https://api.spotify.com/v1/artists/2kucQ9jQwuD8jWdtR9Ef38",
                        "id": "2kucQ9jQwuD8jWdtR9Ef38",
                        "name": "Sam Hunt",
                        "type": "artist",
                        "uri": "spotify:artist:2kucQ9jQwuD8jWdtR9Ef38"
                    }
                ],
                "available_markets": [
                    "AD",
                    "AR",
                    "AT",
                    "AU",
                    "BE",
                    "BG",
                    "BO",
                    "BR",
                    "CA",
                    "CH",
                    "CL",
                    "CO",
                    "CR",
                    "CY",
                    "CZ",
                    "DE",
                    "DK",
                    "DO",
                    "EC",
                    "EE",
                    "ES",
                    "FI",
                    "FR",
                    "GB",
                    "GR",
                    "GT",
                    "HK",
                    "HN",
                    "HU",
                    "ID",
                    "IE",
                    "IL",
                    "IS",
                    "IT",
                    "JP",
                    "LI",
                    "LT",
                    "LU",
                    "LV",
                    "MC",
                    "MT",
                    "MX",
                    "MY",
                    "NI",
                    "NL",
                    "NO",
                    "NZ",
                    "PA",
                    "PE",
                    "PH",
                    "PL",
                    "PT",
                    "PY",
                    "RO",
                    "SE",
                    "SG",
                    "SK",
                    "SV",
                    "TH",
                    "TR",
                    "TW",
                    "US",
                    "UY",
                    "VN",
                    "ZA"
                ],
                "external_urls": {
                    "spotify": "https://open.spotify.com/album/1P18FNogrQRQjmT6t06As8"
                },
                "href": "https://api.spotify.com/v1/albums/1P18FNogrQRQjmT6t06As8",
                "id": "1P18FNogrQRQjmT6t06As8",
                "images": [
                    {
                        "height": 640,
                        "url": "https://i.scdn.co/image/3ccfe5fa7163bd3fd5d86a162aeeb490c265bf48",
                        "width": 640
                    },
                    {
                        "height": 300,
                        "url": "https://i.scdn.co/image/14171f1e267615471793ab356a31a5c658be9545",
                        "width": 300
                    },
                    {
                        "height": 64,
                        "url": "https://i.scdn.co/image/dfe020104ec3abf955dd259cbb43a16a60080412",
                        "width": 64
                    }
                ],
                "name": "Downtown's Dead",
                "release_date": "2018-05-16",
                "release_date_precision": "day",
                "type": "album",
                "uri": "spotify:album:1P18FNogrQRQjmT6t06As8"
            },
            {
                "album_type": "album",
                "artists": [
                    {
                        "external_urls": {
                            "spotify": "https://open.spotify.com/artist/5f7VJjfbwm532GiveGC0ZK"
                        },
                        "href": "https://api.spotify.com/v1/artists/5f7VJjfbwm532GiveGC0ZK",
                        "id": "5f7VJjfbwm532GiveGC0ZK",
                        "name": "Lil Baby",
                        "type": "artist",
                        "uri": "spotify:artist:5f7VJjfbwm532GiveGC0ZK"
                    }
                ],
                "available_markets": [
                    "AD",
                    "AR",
                    "AT",
                    "AU",
                    "BE",
                    "BG",
                    "BO",
                    "BR",
                    "CA",
                    "CH",
                    "CL",
                    "CO",
                    "CR",
                    "CY",
                    "CZ",
                    "DE",
                    "DK",
                    "DO",
                    "EC",
                    "EE",
                    "ES",
                    "FI",
                    "FR",
                    "GB",
                    "GR",
                    "GT",
                    "HK",
                    "HN",
                    "HU",
                    "ID",
                    "IE",
                    "IL",
                    "IS",
                    "IT",
                    "JP",
                    "LI",
                    "LT",
                    "LU",
                    "LV",
                    "MC",
                    "MT",
                    "MX",
                    "MY",
                    "NI",
                    "NL",
                    "NO",
                    "NZ",
                    "PA",
                    "PE",
                    "PH",
                    "PL",
                    "PT",
                    "PY",
                    "RO",
                    "SE",
                    "SG",
                    "SK",
                    "SV",
                    "TH",
                    "TR",
                    "TW",
                    "US",
                    "UY",
                    "VN",
                    "ZA"
                ],
                "external_urls": {
                    "spotify": "https://open.spotify.com/album/7yf9ZJyHRbp8sHtpDKfPpt"
                },
                "href": "https://api.spotify.com/v1/albums/7yf9ZJyHRbp8sHtpDKfPpt",
                "id": "7yf9ZJyHRbp8sHtpDKfPpt",
                "images": [
                    {
                        "height": 640,
                        "url": "https://i.scdn.co/image/3162ed0a8562e4844ca30a4138a799ac3db03dca",
                        "width": 640
                    },
                    {
                        "height": 300,
                        "url": "https://i.scdn.co/image/3b7fd6ea2961e45f1b6031eda466ae1bb3bd30c7",
                        "width": 300
                    },
                    {
                        "height": 64,
                        "url": "https://i.scdn.co/image/c0ce4ac324457924b3123096ddb7832eafba9545",
                        "width": 64
                    }
                ],
                "name": "Harder Than Ever",
                "release_date": "2018-05-18",
                "release_date_precision": "day",
                "type": "album",
                "uri": "spotify:album:7yf9ZJyHRbp8sHtpDKfPpt"
            },
            {
                "album_type": "album",
                "artists": [
                    {
                        "external_urls": {
                            "spotify": "https://open.spotify.com/artist/3Nrfpe0tUJi4K4DXYWgMUX"
                        },
                        "href": "https://api.spotify.com/v1/artists/3Nrfpe0tUJi4K4DXYWgMUX",
                        "id": "3Nrfpe0tUJi4K4DXYWgMUX",
                        "name": "BTS",
                        "type": "artist",
                        "uri": "spotify:artist:3Nrfpe0tUJi4K4DXYWgMUX"
                    }
                ],
                "available_markets": [
                    "AD",
                    "AR",
                    "AT",
                    "AU",
                    "BE",
                    "BG",
                    "BO",
                    "BR",
                    "CA",
                    "CH",
                    "CL",
                    "CO",
                    "CR",
                    "CY",
                    "CZ",
                    "DE",
                    "DK",
                    "DO",
                    "EC",
                    "EE",
                    "ES",
                    "FI",
                    "FR",
                    "GB",
                    "GR",
                    "GT",
                    "HK",
                    "HN",
                    "HU",
                    "ID",
                    "IE",
                    "IL",
                    "IS",
                    "IT",
                    "JP",
                    "LI",
                    "LT",
                    "LU",
                    "LV",
                    "MC",
                    "MT",
                    "MX",
                    "MY",
                    "NI",
                    "NL",
                    "NO",
                    "NZ",
                    "PA",
                    "PE",
                    "PH",
                    "PL",
                    "PT",
                    "PY",
                    "RO",
                    "SE",
                    "SG",
                    "SK",
                    "SV",
                    "TH",
                    "TR",
                    "TW",
                    "US",
                    "UY",
                    "VN",
                    "ZA"
                ],
                "external_urls": {
                    "spotify": "https://open.spotify.com/album/2jJfnAZE6IG3oYnUv2eCj4"
                },
                "href": "https://api.spotify.com/v1/albums/2jJfnAZE6IG3oYnUv2eCj4",
                "id": "2jJfnAZE6IG3oYnUv2eCj4",
                "images": [
                    {
                        "height": 640,
                        "url": "https://i.scdn.co/image/2bb8b49298155123402a78f1a68a245c0051c1c0",
                        "width": 640
                    },
                    {
                        "height": 300,
                        "url": "https://i.scdn.co/image/f1068b5f43d4ea513206284931517da98b66f436",
                        "width": 300
                    },
                    {
                        "height": 64,
                        "url": "https://i.scdn.co/image/41f905ab1b5b9da26bff52b1f51dee30be84c31e",
                        "width": 64
                    }
                ],
                "name": "Love Yourself 轉 'Tear'",
                "release_date": "2018-05-18",
                "release_date_precision": "day",
                "type": "album",
                "uri": "spotify:album:2jJfnAZE6IG3oYnUv2eCj4"
            }
        ],
        "limit": 30,
        "next": "https://api.spotify.com/v1/browse/new-releases?offset=30&limit=30",
        "offset": 0,
        "previous": null,
        "total": 500
    }
}